…
``` r
gcloud_project()
#> [1] "landmarkanvil2"
```

# Default Data Workspace

To get a list of available TCGA workspaces, use the
`findTCGAworkspaces()` function:

``` r
findTCGAworkspaces()
#> # A tibble: 36 × 5
#>   name                        lastModified createdBy namespace accessLevel
#>   <chr>                       <date>       <chr>     <chr>     <chr>      
#> 1 TCGA_ACC_OpenAccess_V1-0_D… 2017-01-31   birger@b… broad-fi… READER     
#> 2 TCGA_BLCA_OpenAccess_V1-0_… 2017-01-31   birger@b… broad-fi… READER     
#> 3 TCGA_BRCA_OpenAccess_V1-0_… 2017-01-31   birger@b… broad-fi… READER     
#> 4 TCGA_CESC_OpenAccess_V1-0_… 2017-01-31   birger@b… broad-fi… READER     
#> 5 TCGA_CHOL_OpenAccess_V1-0_… 2017-01-31   birger@b… broad-fi… READER     
#> # … with 31 more rows
```
…
# Clinical data resources

In order to determine what datasets to download, use the
`getClinicalTable` function to list all of the columns that correspond
to clinical data from the different collection centers.

``` r
ct <- getClinicalTable(workspace = "TCGA_COAD_OpenAccess_V1-0_DATA")
#> Using namespace/workspace: broad-firecloud-tcga/TCGA_COAD_OpenAccess_V1-0_DATA
ct
#> # A tibble: 960 × 6
#>   clin__bio__nationwid… clin__bio__nati… clin__bio__nati… clin__bio__intg…
#>   <chr>                 <chr>            <chr>            <chr>           
#> 1 gs://firecloud-tcga-… gs://firecloud-… gs://firecloud-… <NA>            
#> 2 gs://firecloud-tcga-… gs://firecloud-… gs://firecloud-… <NA>            
#> 3 gs://firecloud-tcga-… gs://firecloud-… gs://firecloud-… <NA>            
#> 4 gs://firecloud-tcga-… gs://firecloud-… gs://firecloud-… <NA>            
#> 5 gs://firecloud-tcga-… gs://firecloud-… gs://firecloud-… <NA>            
#> # … with 955 more rows, and 2 more variables:
#> #   clin__bio__intgen_org__Level_1__clinical__clin <chr>,
#> #   clin__bio__intgen_org__Level_1__biospecimen__clin <chr>
…
#>   patient.samples.sample.initial_weight = col_double(),
#>   patient.samples.sample.current_weight = col_logical(),
#>   patient.samples.sample.freezing_method = col_logical(),
#>   patient.samples.sample.oct_embedded = col_logical(),
#>   patient.samples.sample.preservation_method = col_logical(),
#>   patient.samples.sample.tissue_type = col_logical(),
#>   patient.samples.sample.composition = col_logical(),
#>   patient.samples.sample.tumor_descriptor = col_logical(),
#>   patient.samples.sample.days_to_collection = col_double(),
#>   patient.samples.sample.time_between_clamping_and_freezing = col_logical()
#>   # ... with 1225 more columns
#> )
#> ℹ Use `spec()` for the full column specifications.
clin[, 1:6]
#> # A tibble: 460 × 6
#>   admin.bcr              admin.file_uuid admin.batch_num… admin.project_c…
#>   <chr>                  <chr>           <chr>            <chr>           
#> 1 nationwide children's… a93e6bbe-80de-… 385.38.0         tcga            
#> 2 nationwide children's… 8b055cbc-b2ff-… 385.38.0         tcga            
#> 3 nationwide children's… 61f5baab-8b35-… 422.33.0         tcga            
#> 4 nationwide children's… fbad35cb-8be3-… 422.33.0         tcga            
#> 5 nationwide children's… 5620a991-2a62-… 422.33.0         tcga            
#> # … with 455 more rows, and 2 more variables: admin.disease_code <chr>,
#> #   admin.day_of_dcc_upload <dbl>
dim(clin)
#> [1]  460 2376
```

# Assay data resources

We use the same approach for assay data. We first produce a list of
assays from the `getAssayTable` and then we select one along with any
sample codes of interest.

``` r
at <- getAssayTable(workspace = "TCGA_COAD_OpenAccess_V1-0_DATA")
at
#> # A tibble: 960 × 29
#>   snp__genome_wide_snp… snp__genome_wid… snp__genome_wid… snp__genome_wid…
#>   <chr>                 <chr>            <chr>            <chr>           
#> 1 gs://firecloud-tcga-… gs://firecloud-… gs://firecloud-… gs://firecloud-…
#> 2 gs://firecloud-tcga-… gs://firecloud-… gs://firecloud-… gs://firecloud-…
#> 3 gs://firecloud-tcga-… gs://firecloud-… gs://firecloud-… gs://firecloud-…
#> 4 gs://firecloud-tcga-… gs://firecloud-… gs://firecloud-… gs://firecloud-…
#> 5 gs://firecloud-tcga-… gs://firecloud-… gs://firecloud-… gs://firecloud-…
#> # … with 955 more rows, and 25 more variables:
#> #   protein_exp__mda_rppa_core__mdanderson_org__Level_3__protein_normalization__data <chr>,
#> #   rnaseqv2__illuminahiseq_rnaseqv2__unc_edu__Level_3__RSEM_genes__data <chr>,
#> #   rnaseqv2__illuminahiseq_rnaseqv2__unc_edu__Level_3__RSEM_genes_normalized__data <chr>,
#> #   rnaseqv2__illuminahiseq_rnaseqv2__unc_edu__Level_3__exon_quantification__data <chr>,
#> #   rnaseqv2__illuminahiseq_rnaseqv2__unc_edu__Level_3__junction_quantification__data <chr>,
#> #   rnaseqv2__illuminahiseq_rnaseqv2__unc_edu__Level_3__RSEM_isoforms_normalized__data <chr>, …
…
